LAB8/simulation/qsim/CounterWithRegister.msim.vcd
$comment
	File created using the following command:
		vcd file CounterWithRegister.msim.vcd -direction
$end
$date
	Wed Dec 09 18:13:31 2015
$end
$version
	ModelSim Version 10.3d
$end
$timescale
	1ps
$end

$scope module CounterWithRegister_vlg_vec_tst $end
$var reg 1 ! clk $end
$var reg 1 " reset $end
$var wire 1 # q [3] $end
$var wire 1 $ q [2] $end
$var wire 1 % q [1] $end
$var wire 1 & q [0] $end
$var wire 1 ' sampler $end

$scope module i1 $end
$var wire 1 ( gnd $end
$var wire 1 ) vcc $end
$var wire 1 * unknown $end
$var tri1 1 + devclrn $end
$var tri1 1 , devpor $end
$var tri1 1 - devoe $end
$var wire 1 . ~QUARTUS_CREATED_GND~I_combout $end
$var wire 1 / clk~input_o $end
$var wire 1 0 clk~inputCLKENA0_outclk $end
$var wire 1 1 r_reg[0]~1_combout $end
$var wire 1 2 reset~input_o $end
$var wire 1 3 r_reg[2]~0_combout $end
$var wire 1 4 r_next[3]~1_combout $end
$var wire 1 5 r_next[1]~0_combout $end
$var wire 1 6 r_reg[1]~DUPLICATE_q $end
$var wire 1 7 r_reg[2]~DUPLICATE_q $end
$var wire 1 8 r_reg[3]~DUPLICATE_q $end
$var wire 1 9 r_reg [3] $end
$var wire 1 : r_reg [2] $end
$var wire 1 ; r_reg [1] $end
$var wire 1 < r_reg [0] $end
$upscope $end
$upscope $end
$enddefinitions $end
#0
$dumpvars
0!
1"
0&
0%
0$
0#
x'
0(
1)
x*
1+
1,
1-
0.
0/
00
11
12
03
04
05
06
07
08
0<
0;
0:
09
$end
#5000
1!
1/
0'
10
#10000
0!
0/
1'
00
#15000
1!
1/
0'
10
#20000
0!
0/
1'
00
#25000
1!
1/
0'
10
#30000
0!
0/
1'
00
#35000
1!
1/
0'
10
#40000
0!
0/
1'
00
#45000
1!
1/
0'
10
#50000
0!
0/
1'
00
#55000
1!
1/
0'
10
#60000
0!
0/
1'
00
#65000
1!
1/
0'
10
#70000
0!
0/
1'
00
#75000
1!
1/
0'
10
#80000
0!
0/
1'
00
#85000
1!
1/
0'
10
#90000
0!
0/
1'
00
#95000
1!
1/
0'
10
#100000
0!
0/
1'
00
#105000
1!
1/
0'
10
#110000
0!
0/
1'
00
#115000
1!
1/
0'
10
#120000
0!
0/
1'
00
#125000
1!
1/
0'
10
#130000
0!
0/
1'
00
#135000
1!
1/
0'
10
#140000
0!
0/
1'
00
#145000
1!
1/
0'
10
#150000
0!
0/
1'
00
#155000
1!
1/
0'
10
#160000
0!
0/
1'
00
#165000
1!
1/
0'
10
#170000
0!
0/
1'
00
#175000
1!
1/
0'
10
#180000
0!
0/
1'
00
#185000
1!
1/
0'
10
#190000
0!
0/
1'
00
#195000
1!
1/
0'
10
#200000
0!
0/
1'
00
#205000
1!
1/
0'
10
#210000
0!
0/
1'
00
#215000
1!
1/
0'
10
#220000
0!
0/
1'
00
#225000
1!
1/
0'
10
#230000
0!
0/
1'
00
#235000
1!
1/
0'
10
#240000
0!
0/
1'
00
#245000
1!
1/
0'
10
#250000
0!
0/
1'
00
#255000
1!
1/
0'
10
#260000
0!
0/
1'
00
#265000
1!
1/
0'
10
#270000
0!
0/
1'
00
#275000
1!
1/
0'
10
#280000
0!
0/
1'
00
#285000
1!
1/
0'
10
#290000
0!
0/
1'
00
#295000
1!
1/
0'
10
#300000
0!
0/
1'
00
#305000
1!
1/
0'
10
#310000
0!
0/
1'
00
#315000
1!
1/
0'
10
#320000
0!
0/
1'
00
#325000
1!
1/
0'
10
#330000
0!
0/
1'
00
#335000
1!
1/
0'
10
#340000
0!
0/
1'
00
#345000
1!
1/
0'
10
#350000
0!
0/
1'
00
#355000
1!
1/
0'
10
#360000
0!
0/
1'
00
#365000
1!
1/
0'
10
#370000
0!
0/
1'
00
#375000
1!
1/
0'
10
#380000
0!
0/
1'
00
#385000
1!
1/
0'
10
#390000
0"
0!
02
0/
1'
00
#395000
1!
1/
0'
10
1<
1&
15
01
#400000
0!
0/
1'
00
#405000
1!
1/
0'
10
1;
16
0<
0&
1%
11
#410000
0!
0/
1'
00
#415000
1!
1/
0'
10
1<
1&
05
13
01
#420000
0!
0/
1'
00
#425000
1!
1/
0'
10
1:
0;
17
06
0<
0&
0%
1$
11
#430000
0!
0/
1'
00
#435000
1!
1/
0'
10
1<
1&
15
01
#440000
0!
0/
1'
00
#445000
1!
1/
0'
10
1;
16
0<
0&
1%
11
#450000
0!
0/
1'
00
#455000
1!
1/
0'
10
1<
1&
05
14
03
01
#460000
0!
0/
1'
00
#465000
1!
1/
0'
10
19
0:
0;
18
07
06
0<
0&
0%
0$
1#
11
#470000
0!
0/
1'
00
#475000
1!
1/
0'
10
1<
1&
04
01
#480000
0!
0/
1'
00
#485000
1!
1/
0'
10
09
08
0<
0&
0#
11
#490000
0!
0/
1'
00
#495000
1!
1/
0'
10
1<
1&
15
01
#500000
0!
0/
1'
00
#505000
1!
1/
0'
10
1;
16
0<
0&
1%
11
#510000
0!
0/
1'
00
#515000
1!
1/
0'
10
1<
1&
05
13
01
#520000
0!
0/
1'
00
#525000
1!
1/
0'
10
1:
0;
17
06
0<
0&
0%
1$
11
#530000
0!
0/
1'
00
#535000
1!
1/
0'
10
1<
1&
15
01
#540000
0!
0/
1'
00
#545000
1!
1/
0'
10
1;
16
0<
0&
1%
11
#550000
0!
0/
1'
00
#555000
1!
1/
0'
10
1<
1&
05
14
03
01
#560000
0!
0/
1'
00
#565000
1!
1/
0'
10
19
0:
0;
18
07
06
0<
0&
0%
0$
1#
11
#570000
0!
0/
1'
00
#575000
1!
1/
0'
10
1<
1&
04
01
#580000
0!
0/
1'
00
#585000
1!
1/
0'
10
09
08
0<
0&
0#
11
#590000
0!
0/
1'
00
#595000
1!
1/
0'
10
1<
1&
15
01
#600000
0!
0/
1'
00
#605000
1!
1/
0'
10
1;
16
0<
0&
1%
11
#610000
0!
0/
1'
00
#615000
1!
1/
0'
10
1<
1&
05
13
01
#620000
0!
0/
1'
00
#625000
1!
1/
0'
10
1:
0;
17
06
0<
0&
0%
1$
11
#630000
0!
0/
1'
00
#635000
1!
1/
0'
10
1<
1&
15
01
#640000
0!
0/
1'
00
#645000
1!
1/
0'
10
1;
16
0<
0&
1%
11
#650000
0!
0/
1'
00
#655000
1!
1/
0'
10
1<
1&
05
14
03
01
#660000
0!
0/
1'
00
#665000
1!
1/
0'
10
19
0:
0;
18
07
06
0<
0&
0%
0$
1#
11
#670000
0!
0/
1'
00
#675000
1!
1/
0'
10
1<
1&
04
01
#680000
0!
0/
1'
00
#685000
1!
1/
0'
10
09
08
0<
0&
0#
11
#690000
0!
0/
1'
00
#695000
1!
1/
0'
10
1<
1&
15
01
#700000
0!
0/
1'
00
#705000
1!
1/
0'
10
1;
16
0<
0&
1%
11
#710000
0!
0/
1'
00
#715000
1!
1/
0'
10
1<
1&
05
13
01
#720000
0!
0/
1'
00
#725000
1!
1/
0'
10
1:
0;
17
06
0<
0&
0%
1$
11
#730000
0!
0/
1'
00
#735000
1!
1/
0'
10
1<
1&
15
01
#740000
0!
0/
1'
00
#745000
1!
1/
0'
10
1;
16
0<
0&
1%
11
#750000
0!
0/
1'
00
#755000
1!
1/
0'
10
1<
1&
05
14
03
01
#760000
0!
0/
1'
00
#765000
1!
1/
0'
10
19
0:
0;
18
07
06
0<
0&
0%
0$
1#
11
#770000
0!
0/
1'
00
#775000
1!
1/
0'
10
1<
1&
04
01
#780000
0!
0/
1'
00
#785000
1!
1/
0'
10
09
08
0<
0&
0#
11
#790000
0!
0/
1'
00
#795000
1!
1/
0'
10
1<
1&
15
01
#800000
0!
0/
1'
00
#805000
1!
1/
0'
10
1;
16
0<
0&
1%
11
#810000
0!
0/
1'
00
#815000
1!
1/
0'
10
1<
1&
05
13
01
#820000
0!
0/
1'
00
#825000
1!
1/
0'
10
1:
0;
17
06
0<
0&
0%
1$
11
#830000
0!
0/
1'
00
#835000
1!
1/
0'
10
1<
1&
15
01
#840000
0!
0/
1'
00
#845000
1!
1/
0'
10
1;
16
0<
0&
1%
11
#850000
0!
0/
1'
00
#855000
1!
1/
0'
10
1<
1&
05
14
03
01
#860000
0!
0/
1'
00
#865000
1!
1/
0'
10
19
0:
0;
18
07
06
0<
0&
0%
0$
1#
11
#870000
0!
0/
1'
00
#875000
1!
1/
0'
10
1<
1&
04
01
#880000
0!
0/
1'
00
#885000
1!
1/
0'
10
09
08
0<
0&
0#
11
#890000
0!
0/
1'
00
#895000
1!
1/
0'
10
1<
1&
15
01
#900000
0!
0/
1'
00
#905000
1!
1/
0'
10
1;
16
0<
0&
1%
11
#910000
0!
0/
1'
00
#915000
1!
1/
0'
10
1<
1&
05
13
01
#920000
0!
0/
1'
00
#925000
1!
1/
0'
10
1:
0;
17
06
0<
0&
0%
1$
11
#930000
0!
0/
1'
00
#935000
1!
1/
0'
10
1<
1&
15
01
#940000
0!
0/
1'
00
#945000
1!
1/
0'
10
1;
16
0<
0&
1%
11
#950000
0!
0/
1'
00
#955000
1!
1/
0'
10
1<
1&
05
14
03
01
#960000
0!
0/
1'
00
#965000
1!
1/
0'
10
19
0:
0;
18
07
06
0<
0&
0%
0$
1#
11
#970000
0!
0/
1'
00
#975000
1!
1/
0'
10
1<
1&
04
01
#980000
0!
0/
1'
00
#985000
1!
1/
0'
10
09
08
0<
0&
0#
11
#990000
0!
0/
1'
00
#995000
1!
1/
0'
10
1<
1&
15
01
