counter/simulation/qsim/counter.msim.vcd
$comment
	File created using the following command:
		vcd file counter.msim.vcd -direction
$end
$date
	Fri Nov 13 12:23:00 2015
$end
$version
	ModelSim Version 10.3d
$end
$timescale
	1ps
$end

$scope module counter_vlg_vec_tst $end
$var reg 1 ! clock $end
$var reg 1 " direction $end
$var reg 1 # reset $end
$var wire 1 $ digit [3] $end
$var wire 1 % digit [2] $end
$var wire 1 & digit [1] $end
$var wire 1 ' digit [0] $end
$var wire 1 ( sampler $end

$scope module i1 $end
$var wire 1 ) gnd $end
$var wire 1 * vcc $end
$var wire 1 + unknown $end
$var tri1 1 , devclrn $end
$var tri1 1 - devpor $end
$var tri1 1 . devoe $end
$var wire 1 / ~QUARTUS_CREATED_GND~I_combout $end
$var wire 1 0 clock~input_o $end
$var wire 1 1 clock~inputCLKENA0_outclk $end
$var wire 1 2 reset~input_o $end
$var wire 1 3 temp[0]~3_combout $end
$var wire 1 4 temp[0]~DUPLICATE_q $end
$var wire 1 5 direction~input_o $end
$var wire 1 6 temp[3]~2_combout $end
$var wire 1 7 temp[2]~1_combout $end
$var wire 1 8 temp[1]~0_combout $end
$var wire 1 9 temp [3] $end
$var wire 1 : temp [2] $end
$var wire 1 ; temp [1] $end
$var wire 1 < temp [0] $end
$upscope $end
$upscope $end
$enddefinitions $end
#0
$dumpvars
0!
0"
1#
0'
0&
0%
0$
x(
0)
1*
x+
1,
1-
1.
0/
00
01
12
13
04
05
06
07
08
0<
0;
0:
09
$end
#10000
1!
10
0(
11
1<
14
1'
18
03
#20000
0!
00
1(
01
#30000
1!
10
0(
11
0<
1;
04
0'
1&
13
#40000
0!
00
1(
01
#50000
1!
10
0(
11
1<
14
1'
08
03
17
#60000
0!
00
1(
01
#70000
1!
10
0(
11
0<
0;
1:
04
0'
1%
0&
13
#80000
0!
00
1(
01
#90000
1!
10
0(
11
1<
14
1'
18
03
#100000
0!
00
1(
01
#110000
1!
10
0(
11
0<
1;
04
0'
1&
13
#120000
0!
00
1(
01
#130000
1!
10
0(
11
1<
14
1'
08
03
07
16
#140000
0!
00
1(
01
#150000
1!
10
0(
11
0<
0;
0:
19
04
0'
1$
0%
0&
13
#160000
0!
00
1(
01
#170000
1!
10
0(
11
1<
14
1'
03
06
#180000
0!
00
1(
01
#190000
1!
10
0(
11
0<
09
04
0'
0$
13
#200000
0!
00
1(
01
#210000
1!
10
0(
11
1<
14
1'
18
03
#220000
0!
00
1(
01
#230000
1!
10
0(
11
0<
1;
04
0'
1&
13
#240000
0!
00
1(
01
#250000
1!
10
0(
11
1<
14
1'
08
03
17
#260000
0!
00
1(
01
#270000
1!
10
0(
11
0<
0;
1:
04
0'
1%
0&
13
#280000
0!
00
1(
01
#290000
1!
10
0(
11
1<
14
1'
18
03
#300000
0!
00
1(
01
#310000
1!
10
0(
11
0<
1;
04
0'
1&
13
#320000
0!
00
1(
01
#330000
1!
10
0(
11
1<
14
1'
08
03
07
16
#340000
0!
00
1(
01
#350000
1!
10
0(
11
0<
0;
0:
19
04
0'
1$
0%
0&
13
#360000
0!
00
1(
01
#370000
1!
10
0(
11
1<
14
1'
03
06
#380000
0!
00
1(
01
#390000
1!
10
0(
11
0<
09
04
0'
0$
13
#400000
0!
00
1(
01
#410000
1!
10
0(
11
1<
14
1'
18
03
#420000
0!
00
1(
01
#430000
1!
10
0(
11
0<
1;
04
0'
1&
13
#440000
0!
00
1(
01
#450000
1!
10
0(
11
1<
14
1'
08
03
17
#460000
1"
0!
15
00
1(
01
18
07
#470000
1!
10
0(
11
0<
04
0'
08
13
#480000
0!
00
1(
01
#490000
1!
10
0(
11
1<
0;
14
1'
0&
03
#500000
0!
00
1(
01
#510000
1!
10
0(
11
0<
04
0'
13
16
#520000
0!
00
1(
01
#530000
1!
10
0(
11
1<
19
14
1'
1$
03
#540000
0!
00
1(
01
#550000
1!
10
0(
11
0<
04
0'
18
13
17
06
#560000
0!
00
1(
01
#570000
1!
10
0(
11
1<
1;
1:
09
14
1'
0$
1%
1&
03
#580000
0!
00
1(
01
#590000
1!
10
0(
11
0<
04
0'
08
13
#600000
0!
00
1(
01
#610000
1!
10
0(
11
1<
0;
14
1'
0&
03
#620000
0!
00
1(
01
#630000
1!
10
0(
11
0<
04
0'
18
13
07
#640000
0!
00
1(
01
#650000
1!
10
0(
11
1<
1;
0:
14
1'
0%
1&
03
#660000
0!
00
1(
01
#670000
1!
10
0(
11
0<
04
0'
08
13
#680000
0!
00
1(
01
#690000
1!
10
0(
11
1<
0;
14
1'
0&
03
#700000
0!
00
1(
01
#710000
1!
10
0(
11
0<
04
0'
13
16
#720000
0!
00
1(
01
#730000
1!
10
0(
11
1<
19
14
1'
1$
03
#740000
0!
00
1(
01
#750000
1!
10
0(
11
0<
04
0'
18
13
17
06
#760000
0!
00
1(
01
#770000
1!
10
0(
11
1<
1;
1:
09
14
1'
0$
1%
1&
03
#780000
0!
00
1(
01
#790000
1!
10
0(
11
0<
04
0'
08
13
#800000
0!
00
1(
01
#810000
1!
10
0(
11
1<
0;
14
1'
0&
03
#820000
0!
00
1(
01
#830000
1!
10
0(
11
0<
04
0'
18
13
07
#840000
0!
00
1(
01
#850000
1!
10
0(
11
1<
1;
0:
14
1'
0%
1&
03
#860000
0!
00
1(
01
#870000
1!
10
0(
11
0<
04
0'
08
13
#880000
0!
00
1(
01
#890000
1!
10
0(
11
1<
0;
14
1'
0&
03
#900000
0!
00
1(
01
#910000
1!
10
0(
11
0<
04
0'
13
16
#920000
0!
00
1(
01
#930000
1!
10
0(
11
1<
19
14
1'
1$
03
#940000
0!
00
1(
01
#950000
1!
10
0(
11
0<
04
0'
18
13
17
06
#960000
0!
00
1(
01
#970000
1!
10
0(
11
1<
1;
1:
09
14
1'
0$
1%
1&
03
#980000
0!
00
1(
01
#990000
1!
10
0(
11
0<
04
0'
08
13
