LAB9/simulation/qsim/lab9.msim.vcd
$comment
	File created using the following command:
		vcd file lab9.msim.vcd -direction
$end
$date
	Wed Dec 09 18:26:37 2015
$end
$version
	ModelSim Version 10.3d
$end
$timescale
	1ps
$end

$scope module lab9_vlg_vec_tst $end
$var reg 1 ! clk $end
$var reg 1 " reset $end
$var reg 1 # w $end
$var wire 1 $ z $end
$var wire 1 % sampler $end

$scope module i1 $end
$var wire 1 & gnd $end
$var wire 1 ' vcc $end
$var wire 1 ( unknown $end
$var tri1 1 ) devclrn $end
$var tri1 1 * devpor $end
$var tri1 1 + devoe $end
$var wire 1 , ~QUARTUS_CREATED_GND~I_combout $end
$var wire 1 - clk~input_o $end
$var wire 1 . clk~inputCLKENA0_outclk $end
$var wire 1 / w~input_o $end
$var wire 1 0 reset~input_o $end
$var wire 1 1 next_state[1]~0_combout $end
$var wire 1 2 present_state [1] $end
$var wire 1 3 present_state [0] $end
$var wire 1 4 next_state [1] $end
$var wire 1 5 next_state [0] $end
$upscope $end
$upscope $end
$enddefinitions $end
#0
$dumpvars
0!
0"
0#
0$
x%
0&
1'
x(
1)
1*
1+
0,
0-
0.
0/
00
01
03
02
05
z4
$end
#5000
1!
1-
0%
1.
#10000
0!
0-
1%
0.
#15000
1!
1-
0%
1.
#20000
0!
0-
1%
0.
#25000
1!
1-
0%
1.
#30000
0!
0-
1%
0.
#35000
1!
1-
0%
1.
#40000
1#
0!
1/
0-
1%
0.
15
#45000
1!
1-
0%
1.
#50000
0!
0-
1%
0.
#55000
1!
1-
0%
1.
#60000
0!
0-
1%
0.
#65000
1!
1-
0%
1.
#70000
0!
0-
1%
0.
#75000
1!
1-
0%
1.
#80000
1"
0!
10
0-
1%
0.
#85000
1!
1-
0%
1.
13
11
05
#90000
0!
0-
1%
0.
#95000
1!
1-
0%
1.
03
12
1$
15
#100000
0!
0-
1%
0.
#105000
1!
1-
0%
1.
13
05
#110000
0!
0-
1%
0.
#115000
1!
1-
0%
1.
03
15
#120000
0!
0-
1%
0.
#125000
1!
1-
0%
1.
13
05
#130000
0!
0-
1%
0.
#135000
1!
1-
0%
1.
03
15
#140000
0!
0-
1%
0.
#145000
1!
1-
0%
1.
13
05
#150000
0!
0-
1%
0.
#155000
1!
1-
0%
1.
03
15
#160000
0#
0!
0/
0-
1%
0.
01
05
#165000
1!
1-
0%
1.
02
0$
#170000
0!
0-
1%
0.
#175000
1!
1-
0%
1.
#180000
0!
0-
1%
0.
#185000
1!
1-
0%
1.
#190000
0!
0-
1%
0.
#195000
1!
1-
0%
1.
#200000
0!
0-
1%
0.
#205000
1!
1-
0%
1.
#210000
0!
0-
1%
0.
#215000
1!
1-
0%
1.
#220000
1#
0!
1/
0-
1%
0.
15
#225000
1!
1-
0%
1.
13
11
05
#230000
0!
0-
1%
0.
#235000
1!
1-
0%
1.
03
12
1$
15
#240000
0!
0-
1%
0.
#245000
1!
1-
0%
1.
13
05
#250000
0!
0-
1%
0.
#255000
1!
1-
0%
1.
03
15
#260000
0!
0-
1%
0.
#265000
1!
1-
0%
1.
13
05
#270000
0!
0-
1%
0.
#275000
1!
1-
0%
1.
03
15
#280000
0!
0-
1%
0.
#285000
1!
1-
0%
1.
13
05
#290000
0!
0-
1%
0.
#295000
1!
1-
0%
1.
03
15
#300000
0!
0-
1%
0.
#305000
1!
1-
0%
1.
13
05
#310000
0!
0-
1%
0.
#315000
1!
1-
0%
1.
03
15
#320000
0!
0-
1%
0.
#325000
1!
1-
0%
1.
13
05
#330000
0!
0-
1%
0.
#335000
1!
1-
0%
1.
03
15
#340000
0!
0-
1%
0.
#345000
1!
1-
0%
1.
13
05
#350000
0!
0-
1%
0.
#355000
1!
1-
0%
1.
03
15
#360000
0!
0-
1%
0.
#365000
1!
1-
0%
1.
13
05
#370000
0!
0-
1%
0.
#375000
1!
1-
0%
1.
03
15
#380000
0!
0-
1%
0.
#385000
1!
1-
0%
1.
13
05
#390000
0!
0-
1%
0.
#395000
1!
1-
0%
1.
03
15
#400000
0!
0-
1%
0.
#405000
1!
1-
0%
1.
13
05
#410000
0!
0-
1%
0.
#415000
1!
1-
0%
1.
03
15
#420000
0!
0-
1%
0.
#425000
1!
1-
0%
1.
13
05
#430000
0!
0-
1%
0.
#435000
1!
1-
0%
1.
03
15
#440000
0#
0!
0/
0-
1%
0.
01
05
#445000
1!
1-
0%
1.
02
0$
#450000
0!
0-
1%
0.
#455000
1!
1-
0%
1.
#460000
1#
0!
1/
0-
1%
0.
15
#465000
1!
1-
0%
1.
13
11
05
#470000
0!
0-
1%
0.
#475000
1!
1-
0%
1.
03
12
1$
15
#480000
0!
0-
1%
0.
#485000
1!
1-
0%
1.
13
05
#490000
0!
0-
1%
0.
#495000
1!
1-
0%
1.
03
15
#500000
0#
0!
0/
0-
1%
0.
01
05
#505000
1!
1-
0%
1.
02
0$
#510000
0!
0-
1%
0.
#515000
1!
1-
0%
1.
#520000
0!
0-
1%
0.
#525000
1!
1-
0%
1.
#530000
0!
0-
1%
0.
#535000
1!
1-
0%
1.
#540000
1#
0!
1/
0-
1%
0.
15
#545000
1!
1-
0%
1.
13
11
05
#550000
0!
0-
1%
0.
#555000
1!
1-
0%
1.
03
12
1$
15
#560000
0!
0-
1%
0.
#565000
1!
1-
0%
1.
13
05
#570000
0!
0-
1%
0.
#575000
1!
1-
0%
1.
03
15
#580000
0!
0-
1%
0.
#585000
1!
1-
0%
1.
13
05
#590000
0!
0-
1%
0.
#595000
1!
1-
0%
1.
03
15
#600000
0!
0-
1%
0.
#605000
1!
1-
0%
1.
13
05
#610000
0!
0-
1%
0.
#615000
1!
1-
0%
1.
03
15
#620000
0!
0-
1%
0.
#625000
1!
1-
0%
1.
13
05
#630000
0!
0-
1%
0.
#635000
1!
1-
0%
1.
03
15
#640000
0#
0!
0/
0-
1%
0.
01
05
#645000
1!
1-
0%
1.
02
0$
#650000
0!
0-
1%
0.
#655000
1!
1-
0%
1.
#660000
0!
0-
1%
0.
#665000
1!
1-
0%
1.
#670000
0!
0-
1%
0.
#675000
1!
1-
0%
1.
#680000
0!
0-
1%
0.
#685000
1!
1-
0%
1.
#690000
0!
0-
1%
0.
#695000
1!
1-
0%
1.
#700000
0!
0-
1%
0.
#705000
1!
1-
0%
1.
#710000
0!
0-
1%
0.
#715000
1!
1-
0%
1.
#720000
1#
0!
1/
0-
1%
0.
15
#725000
1!
1-
0%
1.
13
11
05
#730000
0#
0!
0/
0-
1%
0.
01
#735000
1!
1-
0%
1.
03
#740000
0!
0-
1%
0.
#745000
1!
1-
0%
1.
#750000
0!
0-
1%
0.
#755000
1!
1-
0%
1.
#760000
1#
0!
1/
0-
1%
0.
15
#765000
1!
1-
0%
1.
13
11
05
#770000
0#
0!
0/
0-
1%
0.
01
#775000
1!
1-
0%
1.
03
#780000
0!
0-
1%
0.
#785000
1!
1-
0%
1.
#790000
0!
0-
1%
0.
#795000
1!
1-
0%
1.
#800000
1#
0!
1/
0-
1%
0.
15
#805000
1!
1-
0%
1.
13
11
05
#810000
0#
0!
0/
0-
1%
0.
01
#815000
1!
1-
0%
1.
03
#820000
0!
0-
1%
0.
#825000
1!
1-
0%
1.
#830000
0!
0-
1%
0.
#835000
1!
1-
0%
1.
#840000
0!
0-
1%
0.
#845000
1!
1-
0%
1.
#850000
0!
0-
1%
0.
#855000
1!
1-
0%
1.
#860000
0!
0-
1%
0.
#865000
1!
1-
0%
1.
#870000
0!
0-
1%
0.
#875000
1!
1-
0%
1.
#880000
0!
0-
1%
0.
#885000
1!
1-
0%
1.
#890000
0!
0-
1%
0.
#895000
1!
1-
0%
1.
#900000
0!
0-
1%
0.
#905000
1!
1-
0%
1.
#910000
0!
0-
1%
0.
#915000
1!
1-
0%
1.
#920000
0!
0-
1%
0.
#925000
1!
1-
0%
1.
#930000
0!
0-
1%
0.
#935000
1!
1-
0%
1.
#940000
0!
0-
1%
0.
#945000
1!
1-
0%
1.
#950000
0!
0-
1%
0.
#955000
1!
1-
0%
1.
#960000
0!
0-
1%
0.
#965000
1!
1-
0%
1.
#970000
0!
0-
1%
0.
#975000
1!
1-
0%
1.
#980000
0!
0-
1%
0.
#985000
1!
1-
0%
1.
#990000
0!
0-
1%
0.
#995000
1!
1-
0%
1.
